<?xml version="1.0" encoding="UTF-8" standalone="no"?>
<svg
   xmlns:dc="http://purl.org/dc/elements/1.1/"
   xmlns:cc="http://creativecommons.org/ns#"
   xmlns:rdf="http://www.w3.org/1999/02/22-rdf-syntax-ns#"
   xmlns:svg="http://www.w3.org/2000/svg"
   xmlns="http://www.w3.org/2000/svg"
   xmlns:sodipodi="http://sodipodi.sourceforge.net/DTD/sodipodi-0.dtd"
   xmlns:inkscape="http://www.inkscape.org/namespaces/inkscape"
   viewBox="0 0 590.01764 609.73071"
   height="609.73071"
   width="590.01764"
   xml:space="preserve"
   id="svg2"
   version="1.1"
   sodipodi:docname="4h.svg"
   inkscape:version="0.92.4 (5da689c313, 2019-01-14)"><sodipodi:namedview
     pagecolor="#ffffff"
     bordercolor="#666666"
     borderopacity="1"
     objecttolerance="10"
     gridtolerance="10"
     guidetolerance="10"
     inkscape:pageopacity="0"
     inkscape:pageshadow="2"
     inkscape:window-width="640"
     inkscape:window-height="480"
     id="namedview39"
     showgrid="false"
     fit-margin-top="0"
     fit-margin-left="0"
     fit-margin-right="0"
     fit-margin-bottom="0"
     inkscape:zoom="0.37820513"
     inkscape:cx="295.0481"
     inkscape:cy="302.42113"
     inkscape:window-x="0"
     inkscape:window-y="0"
     inkscape:window-maximized="0"
     inkscape:current-layer="svg2" /><metadata
     id="metadata8"><rdf:RDF><cc:Work
         rdf:about=""><dc:format>image/svg+xml</dc:format><dc:type
           rdf:resource="http://purl.org/dc/dcmitype/StillImage" /><dc:title></dc:title></cc:Work></rdf:RDF></metadata><defs
     id="defs6"><clipPath
       id="clipPath18"
       clipPathUnits="userSpaceOnUse"><path
         id="path16"
         d="M 0,468 H 468 V 0 H 0 Z"
         inkscape:connector-curvature="0" /></clipPath></defs><g
     transform="matrix(1.3333333,0,0,-1.3333333,-16.951896,619.30958)"
     id="g10"><g
       transform="matrix(1.3888898,0,0,1.3888898,-89.54432,-103.9705)"
       id="g12"><g
         clip-path="url(#clipPath18)"
         id="g14"><g
           transform="translate(227.457,300.6523)"
           id="g20"><path
             id="path22"
             style="fill:#009c5c;fill-opacity:1;fill-rule:nonzero;stroke:none"
             d="m 0,0 c 1.305,-3.813 6.781,-5.535 8.789,0 3.094,8.539 0.516,22.211 2.063,40.305 2.179,25.336 4.109,36.254 23.25,54.25 25.836,24.281 64.074,14.984 75.957,-11.352 6.832,-15.18 16.316,-22.64 27.894,-28.43 15.508,-7.753 35.184,-43.859 6.719,-70.796 -19.117,-18.075 -41.844,-20.657 -59.414,-21.7 -16.117,-0.941 -37.25,-0.617 -42.891,-4.644 -1.465,-1.047 -3.547,-6.821 0.524,-7.231 7.812,-0.785 29.453,1.45 47.539,3.102 25.316,2.297 37.304,3.801 58.379,-11.883 22.246,-16.559 20.152,-55.812 0.515,-74.426 -12.73,-12.047 -19.73,-21.672 -26.867,-33.574 -10.848,-18.062 -34.105,-39.25 -64.582,-17.039 -21.266,15.484 -27.414,36.098 -31.523,53.203 -3.766,15.707 -4.055,25.539 -5.59,32.785 -0.856,4.043 -8.461,1.149 -8.879,-4.359 -3.094,-41.348 12.914,-88.871 31.519,-117.801 l -29.449,-1.031 c -19.64,38.234 -17.141,101.215 -14.984,120.902 0.406,3.719 -4.86,7.172 -7.242,2.586 -4.797,-9.289 -2.915,-14.625 -5.672,-32.554 -2.067,-13.415 -12.746,-43.09 -25.836,-53.731 -27.907,-22.742 -52.485,-13.828 -66.649,11.375 -9.312,16.527 -17.574,27.363 -28.945,34.613 -16.953,10.774 -28.934,46.492 -4.969,70.172 18.719,18.516 43.039,18.07 60.633,18.016 16.156,-0.024 37.887,-3.516 43.547,-0.356 3.797,2.129 5.129,6.055 1.031,7.231 -7.711,2.211 -22.73,-0.953 -40.816,0.523 -16.996,1.36 -35.332,4.883 -57.356,20.145 -26.164,18.136 -17.566,60.449 7.754,75.965 14.184,8.672 20.981,18.164 27.379,29.437 10.852,19.121 48.57,33.586 73.891,8.789 C -5.484,74.078 -3.906,61.891 -1.547,44.43 0.617,28.43 -2.211,6.488 0,0"
             inkscape:connector-curvature="0" /></g><g
           transform="translate(312.4961,175.8164)"
           id="g24"><path
             id="path26"
             style="fill:#ffffff;fill-opacity:1;fill-rule:nonzero;stroke:none"
             d="M 0,0 18.117,-15.164 10.148,-24.668 -35.313,13.5 -27.34,23 -8.797,7.371 6.098,25.086 -12.453,40.727 -4.477,50.219 40.973,12.055 33,2.555 14.883,17.727 Z"
             inkscape:connector-curvature="0" /></g><g
           transform="translate(319.8008,329.5977)"
           id="g28"><path
             id="path30"
             style="fill:#ffffff;fill-opacity:1;fill-rule:nonzero;stroke:none"
             d="m 0,0 17.023,16.383 8.586,-8.946 -42.836,-41.093 -8.582,8.945 17.536,16.75 L -24.297,8.75 -41.836,-8 -50.414,0.937 -7.594,42.031 1,33.078 -16.027,16.703 Z"
             inkscape:connector-curvature="0" /></g><g
           transform="translate(158.8867,339.2305)"
           id="g32"><path
             id="path34"
             style="fill:#ffffff;fill-opacity:1;fill-rule:nonzero;stroke:none"
             d="m 0,0 -17.363,16.031 8.418,9.114 43.578,-40.317 -8.434,-9.117 -17.765,16.535 -15.723,-16.996 17.762,-16.52 -8.41,-9.121 -43.567,40.313 8.418,9.117 17.367,-16.016 z"
             inkscape:connector-curvature="0" /></g><g
           transform="translate(138.1328,190.668)"
           id="g36"><path
             id="path38"
             style="fill:#ffffff;fill-opacity:1;fill-rule:nonzero;stroke:none"
             d="m 0,0 -17.426,-15.953 -8.351,9.156 43.843,40.02 8.356,-9.168 L 8.469,7.742 24.066,-9.367 42.023,6.953 50.387,-2.203 6.535,-42.215 l -8.355,9.168 17.429,15.938 z"
             inkscape:connector-curvature="0" /></g><g
           transform="translate(284.0039,80.4219)"
           id="g40"><path
             id="path42"
             style="fill:#009c5c;fill-opacity:1;fill-rule:nonzero;stroke:none"
             d="m 0,0 h -1.363 v 7.219 h -2.379 v 1.008 c 1.656,0.117 2.328,0.273 2.73,1.929 H 0 Z"
             inkscape:connector-curvature="0" /></g><g
           transform="translate(292.6484,87.9297)"
           id="g44"><path
             id="path46"
             style="fill:#009c5c;fill-opacity:1;fill-rule:nonzero;stroke:none"
             d="m 0,0 c 0,0.617 -0.41,1.516 -1.898,1.516 -1.356,0 -1.692,-0.93 -1.692,-1.586 0,-0.985 0.852,-1.578 1.774,-1.578 C -0.711,-1.648 0,-0.922 0,0 m -3.887,-4.609 c 0,-0.821 0.395,-2.039 2.164,-2.039 0.926,0 2.039,0.343 2.039,1.937 0,1.375 -0.957,1.977 -2.109,1.977 -1.437,0 -2.094,-0.946 -2.094,-1.875 m 3.899,2.515 c 1.375,-0.578 1.664,-1.703 1.664,-2.468 0,-1.641 -1.043,-3.235 -3.442,-3.235 -0.566,0 -1.636,0.156 -2.441,0.781 -1.047,0.829 -1.047,1.946 -1.047,2.414 0,1.266 0.649,2.039 1.719,2.5 -0.867,0.329 -1.371,1.024 -1.371,1.961 0,1.063 0.652,2.789 3.082,2.789 2.258,0 3.136,-1.421 3.136,-2.625 0,-1.445 -0.847,-1.898 -1.3,-2.117"
             inkscape:connector-curvature="0" /></g><g
           transform="translate(308.2305,90.8203)"
           id="g48"><path
             id="path50"
             style="fill:#009c5c;fill-opacity:1;fill-rule:nonzero;stroke:none"
             d="m 0,0 v -6.766 c 0,-2.109 -1.336,-3.922 -4.187,-3.922 -2.793,0 -3.985,1.813 -3.985,3.751 V 0 h 1.399 v -6.555 c 0,-2.25 1.375,-2.875 2.628,-2.875 1.286,0 2.739,0.602 2.739,2.852 V 0 Z"
             inkscape:connector-curvature="0" /></g><path
           id="path52"
           style="fill:#009c5c;fill-opacity:1;fill-rule:nonzero;stroke:none"
           d="m 312.121,81.945 h -1.5 v -1.523 h 1.5 z"
           inkscape:connector-curvature="0" /><g
           transform="translate(320.7461,87.7734)"
           id="g54"><path
             id="path56"
             style="fill:#009c5c;fill-opacity:1;fill-rule:nonzero;stroke:none"
             d="m 0,0 c -0.078,1.602 -1.402,2.109 -2.57,2.109 -0.891,0 -2.379,-0.242 -2.379,-1.812 0,-0.906 0.621,-1.195 1.222,-1.328 l 2.969,-0.688 c 1.344,-0.312 2.356,-1.133 2.356,-2.758 0,-2.468 -2.282,-3.164 -4.059,-3.164 -1.922,0 -2.672,0.586 -3.144,1 -0.879,0.813 -1.051,1.68 -1.051,2.633 h 1.32 c 0,-1.859 1.523,-2.414 2.859,-2.414 1.016,0 2.719,0.25 2.719,1.742 0,1.094 -0.508,1.414 -2.211,1.828 l -2.133,0.508 c -0.679,0.149 -2.214,0.625 -2.214,2.438 0,1.625 1.058,3.219 3.57,3.219 3.637,0 4.004,-2.172 4.051,-3.313 z"
             inkscape:connector-curvature="0" /></g><path
           id="path58"
           style="fill:#009c5c;fill-opacity:1;fill-rule:nonzero;stroke:none"
           d="m 325.793,80.422 h -1.508 v 1.523 h 1.508 z"
           inkscape:connector-curvature="0" /><g
           transform="translate(335.4453,87.6875)"
           id="g60"><path
             id="path62"
             style="fill:#009c5c;fill-opacity:1;fill-rule:nonzero;stroke:none"
             d="m 0,0 c -0.391,1.828 -1.918,2.141 -2.91,2.141 -1.883,0 -3.395,-1.383 -3.395,-4.11 0,-2.445 0.868,-4.328 3.442,-4.328 0.906,0 2.484,0.438 2.961,2.852 h 1.359 c -0.578,-3.922 -3.754,-4.11 -4.543,-4.11 -2.351,0 -4.676,1.532 -4.676,5.532 0,3.203 1.828,5.421 4.852,5.421 2.672,0 4.062,-1.671 4.258,-3.398 z"
             inkscape:connector-curvature="0" /></g><path
           id="path64"
           style="fill:#009c5c;fill-opacity:1;fill-rule:nonzero;stroke:none"
           d="m 340.262,80.422 h -1.508 v 1.523 h 1.508 z"
           inkscape:connector-curvature="0" /><g
           transform="translate(346.0742,90.3672)"
           id="g66"><path
             id="path68"
             style="fill:#009c5c;fill-opacity:1;fill-rule:nonzero;stroke:none"
             d="M 0,0 H 7.027 V -1.102 C 6.023,-2.164 3.586,-5.391 2.848,-9.945 H 1.445 c 0.348,2.797 2.203,6.429 4.149,8.695 H 0 Z"
             inkscape:connector-curvature="0" /></g><g
           transform="translate(357.6094,89.4453)"
           id="g70"><path
             id="path72"
             style="fill:#009c5c;fill-opacity:1;fill-rule:nonzero;stroke:none"
             d="m 0,0 c -1.473,0 -2.137,-1.531 -2.137,-4.078 0,-2.531 0.664,-4.086 2.137,-4.086 1.457,0 2.117,1.555 2.117,4.086 C 2.117,-1.531 1.457,0 0,0 m 0,-9.313 c -2.934,0 -3.492,3.118 -3.492,5.235 0,2.117 0.558,5.211 3.492,5.211 2.918,0 3.492,-3.094 3.492,-5.211 0,-2.117 -0.574,-5.235 -3.492,-5.235"
             inkscape:connector-curvature="0" /></g><g
           transform="translate(362.168,90.3672)"
           id="g74"><path
             id="path76"
             style="fill:#009c5c;fill-opacity:1;fill-rule:nonzero;stroke:none"
             d="M 0,0 H 7.023 V -1.102 C 6.008,-2.164 3.578,-5.391 2.852,-9.945 H 1.445 c 0.348,2.797 2.2,6.429 4.149,8.695 H 0 Z"
             inkscape:connector-curvature="0" /></g></g></g></g></svg>