<?xml version="1.0" encoding="UTF-8" standalone="no"?>
<!-- Created with Inkscape (http://www.inkscape.org/) -->

<svg
   xmlns:dc="http://purl.org/dc/elements/1.1/"
   xmlns:cc="http://creativecommons.org/ns#"
   xmlns:rdf="http://www.w3.org/1999/02/22-rdf-syntax-ns#"
   xmlns:svg="http://www.w3.org/2000/svg"
   xmlns="http://www.w3.org/2000/svg"
   xmlns:sodipodi="http://sodipodi.sourceforge.net/DTD/sodipodi-0.dtd"
   xmlns:inkscape="http://www.inkscape.org/namespaces/inkscape"
   version="1.1"
   id="svg2"
   xml:space="preserve"
   width="577.29224"
   height="614.91315"
   viewBox="0 0 577.29224 614.91315"
   sodipodi:docname="ucce.svg"
   inkscape:version="0.92.4 (5da689c313, 2019-01-14)"><metadata
     id="metadata8"><rdf:RDF><cc:Work
         rdf:about=""><dc:format>image/svg+xml</dc:format><dc:type
           rdf:resource="http://purl.org/dc/dcmitype/StillImage" /><dc:title></dc:title></cc:Work></rdf:RDF></metadata><defs
     id="defs6"><clipPath
       clipPathUnits="userSpaceOnUse"
       id="clipPath18"><path
         d="M 0,468 H 468 V 0 H 0 Z"
         id="path16"
         inkscape:connector-curvature="0" /></clipPath></defs><sodipodi:namedview
     pagecolor="#ffffff"
     bordercolor="#666666"
     borderopacity="1"
     objecttolerance="10"
     gridtolerance="10"
     guidetolerance="10"
     inkscape:pageopacity="0"
     inkscape:pageshadow="2"
     inkscape:window-width="3840"
     inkscape:window-height="2066"
     id="namedview4"
     showgrid="false"
     fit-margin-top="0"
     fit-margin-left="0"
     fit-margin-right="0"
     fit-margin-bottom="0"
     inkscape:zoom="2.1394513"
     inkscape:cx="288.15557"
     inkscape:cy="275.64783"
     inkscape:window-x="-11"
     inkscape:window-y="-11"
     inkscape:window-maximized="1"
     inkscape:current-layer="g10" /><g
     id="g10"
     inkscape:groupmode="layer"
     inkscape:label="UCCE"
     transform="matrix(1.3333333,0,0,-1.3333333,-23.84443,619.70105)"><g
       id="g12"
       transform="matrix(1.1937753,0,0,1.1937753,-45.414702,-45.378941)"><g
         id="g14"
         clip-path="url(#clipPath18)"><g
           id="g20"
           transform="translate(241.085,413.7676)"><path
             d="m 0,0 c -2.201,-0.082 -5.433,-0.537 -9.682,-1.376 -4.253,-0.852 -7.715,-2.116 -10.391,-3.801 -2.677,-1.763 -4.524,-5.397 -5.555,-10.922 -1.02,-5.515 -1.534,-12.265 -1.534,-20.227 v -70.934 c 0,-9.046 -1.926,-16.901 -5.785,-23.569 -3.858,-6.662 -8.937,-12.148 -15.23,-16.441 -6.221,-4.132 -12.772,-7.102 -19.656,-8.905 -6.895,-1.803 -13.483,-2.707 -19.778,-2.707 -10.077,0 -19.056,1.286 -26.921,3.855 -7.873,2.565 -14.482,6.037 -19.835,10.405 -5.284,4.371 -9.257,9.368 -11.926,15.005 -2.682,5.632 -4.02,11.513 -4.02,17.643 v 96.452 c 0,2.682 -0.455,4.922 -1.354,6.726 -0.909,1.796 -2.742,3.467 -5.491,5.002 -1.972,1.068 -4.491,1.934 -7.554,2.579 -3.078,0.659 -5.597,1.059 -7.568,1.215 v 8.164 h 69.786 V 0 c -2.203,-0.082 -4.974,-0.424 -8.318,-1.035 -3.352,-0.615 -5.812,-1.188 -7.387,-1.724 -2.679,-0.923 -4.466,-2.457 -5.373,-4.602 -0.9,-2.139 -1.361,-4.469 -1.361,-7.004 v -90.052 c 0,-4.373 0.492,-8.945 1.485,-13.732 0.982,-4.786 2.929,-9.241 5.845,-13.377 3.071,-4.216 7.234,-7.661 12.514,-10.342 5.28,-2.682 12.513,-4.021 21.722,-4.021 8.665,0 15.92,1.339 21.787,4.021 5.866,2.681 10.487,6.203 13.877,10.575 3.23,4.128 5.512,8.452 6.848,12.974 1.341,4.518 2.005,9.071 2.005,13.672 v 66.855 c 0,8.5 -0.623,15.446 -1.89,20.847 -1.259,5.399 -3.105,8.935 -5.546,10.631 -2.752,1.914 -6.52,3.398 -11.276,4.478 -4.766,1.065 -8.399,1.68 -10.923,1.836 V 8.164 H 0 Z"
             style="fill:#184786;fill-opacity:1;fill-rule:nonzero;stroke:none"
             id="path22"
             inkscape:connector-curvature="0" /></g><g
           id="g24"
           transform="translate(241.085,413.7676)"><path
             d="m 0,0 c -2.201,-0.082 -5.433,-0.537 -9.682,-1.376 -4.253,-0.852 -7.715,-2.116 -10.391,-3.801 -2.677,-1.763 -4.524,-5.397 -5.555,-10.922 -1.02,-5.515 -1.534,-12.265 -1.534,-20.227 v -70.934 c 0,-9.046 -1.926,-16.901 -5.785,-23.569 -3.858,-6.662 -8.937,-12.148 -15.23,-16.441 -6.221,-4.132 -12.772,-7.102 -19.656,-8.905 -6.895,-1.803 -13.483,-2.707 -19.778,-2.707 -10.077,0 -19.056,1.286 -26.921,3.855 -7.873,2.565 -14.482,6.037 -19.835,10.405 -5.284,4.371 -9.257,9.368 -11.926,15.005 -2.682,5.632 -4.02,11.513 -4.02,17.643 v 96.452 c 0,2.682 -0.455,4.922 -1.354,6.726 -0.909,1.796 -2.742,3.467 -5.491,5.002 -1.972,1.068 -4.491,1.934 -7.554,2.579 -3.078,0.659 -5.597,1.059 -7.568,1.215 v 8.164 h 69.786 V 0 c -2.203,-0.082 -4.974,-0.424 -8.318,-1.035 -3.352,-0.615 -5.812,-1.188 -7.387,-1.724 -2.679,-0.923 -4.466,-2.457 -5.373,-4.602 -0.9,-2.139 -1.361,-4.469 -1.361,-7.004 v -90.052 c 0,-4.373 0.492,-8.945 1.485,-13.732 0.982,-4.786 2.929,-9.241 5.845,-13.377 3.071,-4.216 7.234,-7.661 12.514,-10.342 5.28,-2.682 12.513,-4.021 21.722,-4.021 8.665,0 15.92,1.339 21.787,4.021 5.866,2.681 10.487,6.203 13.877,10.575 3.23,4.128 5.512,8.452 6.848,12.974 1.341,4.518 2.005,9.071 2.005,13.672 v 66.855 c 0,8.5 -0.623,15.446 -1.89,20.847 -1.259,5.399 -3.105,8.935 -5.546,10.631 -2.752,1.914 -6.52,3.398 -11.276,4.478 -4.766,1.065 -8.399,1.68 -10.923,1.836 V 8.164 H 0 Z"
             style="fill:none;stroke:#184786;stroke-width:3.71000004;stroke-linecap:butt;stroke-linejoin:miter;stroke-miterlimit:4;stroke-dasharray:none;stroke-opacity:1"
             id="path26"
             inkscape:connector-curvature="0" /></g><g
           id="g28"
           transform="translate(329,254.8857)"><path
             d="m 0,0 c -9.989,0 -19.562,1.92 -28.723,5.755 -9.167,3.834 -17.289,9.358 -24.362,16.564 -7.006,7.209 -12.59,16.012 -16.754,26.405 -4.171,10.386 -6.257,22.104 -6.257,35.14 0,13.042 2.044,24.873 6.129,35.487 4.098,10.63 9.76,19.769 16.994,27.442 7.156,7.596 15.61,13.452 25.36,17.599 9.755,4.143 20.173,6.213 31.26,6.213 8.257,0 15.732,-1.001 22.422,-2.989 6.686,-1.992 13.06,-4.797 19.11,-8.387 l 4.839,7.816 h 9.442 l 1.059,-58.176 h -9.675 c -1.267,5.677 -3.145,11.827 -5.665,18.449 -2.518,6.634 -5.466,12.245 -8.851,16.847 -3.771,5.217 -8.253,9.291 -13.445,12.246 -5.192,2.944 -11.124,4.425 -17.799,4.425 -7.634,0 -14.73,-1.655 -21.3,-4.947 -6.561,-3.307 -12.241,-8.178 -17.034,-14.616 -4.562,-6.208 -8.143,-14.111 -10.73,-23.7 -2.604,-9.583 -3.889,-20.285 -3.889,-32.096 0,-10.434 1.344,-20.003 4.061,-28.707 2.713,-8.704 6.586,-16.359 11.619,-22.948 5.03,-6.527 10.986,-11.626 17.866,-15.309 6.883,-3.678 14.563,-5.52 23.062,-5.52 6.368,0 12.231,0.979 17.578,2.932 5.348,1.958 9.984,4.542 13.912,7.756 3.94,3.375 7.395,7.204 10.386,11.498 2.989,4.294 5.42,8.965 7.307,14.029 L 66.786,45.07 C 60.017,28.898 51.053,17.336 39.887,10.41 28.718,3.473 15.415,0 0,0"
             style="fill:#0085bf;fill-opacity:1;fill-rule:nonzero;stroke:none"
             id="path30"
             inkscape:connector-curvature="0" /></g><g
           id="g32"
           transform="translate(329,254.8857)"><path
             d="m 0,0 c -9.989,0 -19.562,1.92 -28.723,5.755 -9.167,3.834 -17.289,9.358 -24.362,16.564 -7.006,7.209 -12.59,16.012 -16.754,26.405 -4.171,10.386 -6.257,22.104 -6.257,35.14 0,13.042 2.044,24.873 6.129,35.487 4.098,10.63 9.76,19.769 16.994,27.442 7.156,7.596 15.61,13.452 25.36,17.599 9.755,4.143 20.173,6.213 31.26,6.213 8.257,0 15.732,-1.001 22.422,-2.989 6.686,-1.992 13.06,-4.797 19.11,-8.387 l 4.839,7.816 h 9.442 l 1.059,-58.176 h -9.675 c -1.267,5.677 -3.145,11.827 -5.665,18.449 -2.518,6.634 -5.466,12.245 -8.851,16.847 -3.771,5.217 -8.253,9.291 -13.445,12.246 -5.192,2.944 -11.124,4.425 -17.799,4.425 -7.634,0 -14.73,-1.655 -21.3,-4.947 -6.561,-3.307 -12.241,-8.178 -17.034,-14.616 -4.562,-6.208 -8.143,-14.111 -10.73,-23.7 -2.604,-9.583 -3.889,-20.285 -3.889,-32.096 0,-10.434 1.344,-20.003 4.061,-28.707 2.713,-8.704 6.586,-16.359 11.619,-22.948 5.03,-6.527 10.986,-11.626 17.866,-15.309 6.883,-3.678 14.563,-5.52 23.062,-5.52 6.368,0 12.231,0.979 17.578,2.932 5.348,1.958 9.984,4.542 13.912,7.756 3.94,3.375 7.395,7.204 10.386,11.498 2.989,4.294 5.42,8.965 7.307,14.029 L 66.786,45.07 C 60.017,28.898 51.053,17.336 39.887,10.41 28.718,3.473 15.415,0 0,0 Z"
             style="fill:none;stroke:#0085bf;stroke-width:3.71000004;stroke-linecap:butt;stroke-linejoin:miter;stroke-miterlimit:4;stroke-dasharray:none;stroke-opacity:1"
             id="path34"
             inkscape:connector-curvature="0" /></g><g
           id="g36"
           transform="translate(148.9585,42.876)"><path
             d="m 0,0 c -9.989,0 -19.567,1.913 -28.724,5.749 -9.164,3.84 -17.289,9.36 -24.367,16.573 -7.004,7.204 -12.585,15.999 -16.754,26.396 -4.163,10.394 -6.252,22.102 -6.252,35.151 0,13.031 2.044,24.853 6.131,35.482 4.096,10.622 9.756,19.762 16.993,27.435 7.153,7.596 15.612,13.462 25.363,17.595 9.749,4.14 20.17,6.223 31.264,6.223 8.25,0 15.726,-0.998 22.412,-2.995 6.684,-1.993 13.059,-4.792 19.105,-8.386 l 4.837,7.82 h 9.452 l 1.061,-58.17 h -9.685 c -1.261,5.67 -3.144,11.812 -5.665,18.437 -2.51,6.636 -5.461,12.247 -8.843,16.85 -3.771,5.214 -8.251,9.289 -13.444,12.245 -5.195,2.94 -11.123,4.424 -17.806,4.424 -7.623,0 -14.72,-1.651 -21.295,-4.946 -6.563,-3.304 -12.238,-8.178 -17.034,-14.611 -4.555,-6.222 -8.141,-14.117 -10.729,-23.706 -2.603,-9.587 -3.895,-20.286 -3.895,-32.085 0,-10.445 1.352,-20.008 4.069,-28.717 2.71,-8.709 6.578,-16.354 11.617,-22.952 5.029,-6.528 10.984,-11.618 17.868,-15.303 6.881,-3.671 14.56,-5.521 23.065,-5.521 6.36,0 12.221,0.983 17.571,2.931 5.343,1.951 9.975,4.541 13.913,7.762 3.927,3.364 7.392,7.2 10.38,11.503 2.985,4.279 5.426,8.958 7.309,14.013 l 8.855,-4.128 C 60.019,28.895 51.046,17.335 39.877,10.408 28.707,3.47 15.418,0 0,0"
             style="fill:#184786;fill-opacity:1;fill-rule:nonzero;stroke:none"
             id="path38"
             inkscape:connector-curvature="0" /></g><g
           id="g40"
           transform="translate(148.9585,42.876)"><path
             d="m 0,0 c -9.989,0 -19.567,1.913 -28.724,5.749 -9.164,3.84 -17.289,9.36 -24.367,16.573 -7.004,7.204 -12.585,15.999 -16.754,26.396 -4.163,10.394 -6.252,22.102 -6.252,35.151 0,13.031 2.044,24.853 6.131,35.482 4.096,10.622 9.756,19.762 16.993,27.435 7.153,7.596 15.612,13.462 25.363,17.595 9.749,4.14 20.17,6.223 31.264,6.223 8.25,0 15.726,-0.998 22.412,-2.995 6.684,-1.993 13.059,-4.792 19.105,-8.386 l 4.837,7.82 h 9.452 l 1.061,-58.17 h -9.685 c -1.261,5.67 -3.144,11.812 -5.665,18.437 -2.51,6.636 -5.461,12.247 -8.843,16.85 -3.771,5.214 -8.251,9.289 -13.444,12.245 -5.195,2.94 -11.123,4.424 -17.806,4.424 -7.623,0 -14.72,-1.651 -21.295,-4.946 -6.563,-3.304 -12.238,-8.178 -17.034,-14.611 -4.555,-6.222 -8.141,-14.117 -10.729,-23.706 -2.603,-9.587 -3.895,-20.286 -3.895,-32.085 0,-10.445 1.352,-20.008 4.069,-28.717 2.71,-8.709 6.578,-16.354 11.617,-22.952 5.029,-6.528 10.984,-11.618 17.868,-15.303 6.881,-3.671 14.56,-5.521 23.065,-5.521 6.36,0 12.221,0.983 17.571,2.931 5.343,1.951 9.975,4.541 13.913,7.762 3.927,3.364 7.392,7.2 10.38,11.503 2.985,4.279 5.426,8.958 7.309,14.013 l 8.855,-4.128 C 60.019,28.895 51.046,17.335 39.877,10.408 28.707,3.47 15.418,0 0,0 Z"
             style="fill:none;stroke:#184786;stroke-width:3.71000004;stroke-linecap:butt;stroke-linejoin:miter;stroke-miterlimit:4;stroke-dasharray:none;stroke-opacity:1"
             id="path42"
             inkscape:connector-curvature="0" /></g><g
           id="g44"
           transform="translate(391.7285,94.8379)"><path
             d="m 0,0 -3.195,-48.043 h -139.092 v 8.151 c 2.359,0.15 5.514,0.482 9.45,0.982 3.937,0.491 6.497,1.005 7.674,1.547 2.517,1.148 4.264,2.643 5.256,4.483 0.981,1.837 1.469,4.171 1.469,7.016 v 117.26 c 0,2.524 -0.428,4.771 -1.297,6.727 -0.871,1.952 -2.673,3.535 -5.428,4.765 -2.13,0.993 -4.983,1.872 -8.564,2.653 -3.585,0.764 -6.432,1.222 -8.56,1.379 v 8.161 H -12.641 V 75.752 h -8.85 c -1.57,5.83 -4.984,12.02 -10.21,18.57 -5.24,6.548 -10.224,10.135 -14.942,10.746 -2.442,0.313 -5.349,0.537 -8.734,0.699 -3.394,0.146 -7.255,0.229 -11.571,0.229 H -93.28 V 41.163 h 18.887 c 6.066,0 10.494,0.547 13.288,1.664 2.788,1.111 5.254,2.971 7.376,5.569 1.737,2.227 3.208,5.193 4.428,8.914 1.222,3.709 2.018,7.221 2.419,10.507 h 8.855 V 3.912 h -8.855 c -0.313,3.673 -1.162,7.566 -2.535,11.666 -1.379,4.097 -2.815,7.073 -4.312,8.908 -2.445,2.994 -5.213,4.945 -8.321,5.868 -3.115,0.913 -7.229,1.372 -12.343,1.372 H -93.28 v -48.897 c 0,-4.889 0.35,-8.754 1.058,-11.576 0.708,-2.848 2.086,-4.978 4.128,-6.426 2.048,-1.463 4.846,-2.4 8.392,-2.818 3.537,-0.428 8.577,-0.632 15.109,-0.632 h 10.277 c 4.251,0 7.835,0.15 10.746,0.453 2.988,0.303 6.086,0.87 9.265,1.668 3.196,0.8 5.448,1.9 6.791,3.278 3.622,3.67 7.422,9.254 11.401,16.732 3.969,7.46 6.505,12.966 7.613,16.492 z"
             style="fill:#0085bf;fill-opacity:1;fill-rule:nonzero;stroke:none"
             id="path46"
             inkscape:connector-curvature="0" /></g><g
           id="g48"
           transform="translate(391.7285,94.8379)"><path
             d="m 0,0 -3.195,-48.043 h -139.092 v 8.151 c 2.359,0.15 5.514,0.482 9.45,0.982 3.937,0.491 6.497,1.005 7.674,1.547 2.517,1.148 4.264,2.643 5.256,4.483 0.981,1.837 1.469,4.171 1.469,7.016 v 117.26 c 0,2.524 -0.428,4.771 -1.297,6.727 -0.871,1.952 -2.673,3.535 -5.428,4.765 -2.13,0.993 -4.983,1.872 -8.564,2.653 -3.585,0.764 -6.432,1.222 -8.56,1.379 v 8.161 H -12.641 V 75.752 h -8.85 c -1.57,5.83 -4.984,12.02 -10.21,18.57 -5.24,6.548 -10.224,10.135 -14.942,10.746 -2.442,0.313 -5.349,0.537 -8.734,0.699 -3.394,0.146 -7.255,0.229 -11.571,0.229 H -93.28 V 41.163 h 18.887 c 6.066,0 10.494,0.547 13.288,1.664 2.788,1.111 5.254,2.971 7.376,5.569 1.737,2.227 3.208,5.193 4.428,8.914 1.222,3.709 2.018,7.221 2.419,10.507 h 8.855 V 3.912 h -8.855 c -0.313,3.673 -1.162,7.566 -2.535,11.666 -1.379,4.097 -2.815,7.073 -4.312,8.908 -2.445,2.994 -5.213,4.945 -8.321,5.868 -3.115,0.913 -7.229,1.372 -12.343,1.372 H -93.28 v -48.897 c 0,-4.889 0.35,-8.754 1.058,-11.576 0.708,-2.848 2.086,-4.978 4.128,-6.426 2.048,-1.463 4.846,-2.4 8.392,-2.818 3.537,-0.428 8.577,-0.632 15.109,-0.632 h 10.277 c 4.251,0 7.835,0.15 10.746,0.453 2.988,0.303 6.086,0.87 9.265,1.668 3.196,0.8 5.448,1.9 6.791,3.278 3.622,3.67 7.422,9.254 11.401,16.732 3.969,7.46 6.505,12.966 7.613,16.492 z"
             style="fill:none;stroke:#0085bf;stroke-width:3.71000004;stroke-linecap:butt;stroke-linejoin:miter;stroke-miterlimit:4;stroke-dasharray:none;stroke-opacity:1"
             id="path50"
             inkscape:connector-curvature="0" /></g><g
           id="g52"
           transform="translate(53.0234,234.4399)"><path
             d="M 0,0 H 362.689"
             style="fill:none;stroke:#f7ae42;stroke-width:5.954;stroke-linecap:butt;stroke-linejoin:round;stroke-miterlimit:4;stroke-dasharray:none;stroke-opacity:1"
             id="path54"
             inkscape:connector-curvature="0" /></g></g></g></g></svg>